SPI_master/SPI_master_tb.vcd
$date
	Mon Apr 21 14:26:39 2025
$end
$version
	Icarus Verilog
$end
$timescale
	1s
$end
$scope module SPI_master_tb $end
$var wire 1 ! SPI_slave_select $end
$var wire 1 " SPI_mosi $end
$var wire 1 # SPI_flag $end
$var wire 8 $ SPI_data_rec [7:0] $end
$var reg 1 % SPI_MSB $end
$var reg 8 & SPI_data_trans [7:0] $end
$var reg 2 ' SPI_div [1:0] $end
$var reg 1 ( SPI_miso $end
$var reg 1 ) SPI_reset $end
$var reg 1 * SPI_start $end
$var reg 1 + clk $end
$scope module uut $end
$var wire 1 % SPI_MSB $end
$var wire 8 , SPI_data_trans [7:0] $end
$var wire 2 - SPI_div [1:0] $end
$var wire 1 ( SPI_miso $end
$var wire 1 ) SPI_reset $end
$var wire 1 * SPI_start $end
$var wire 1 + clk $end
$var wire 1 . sck_slave $end
$var wire 1 / sck_master $end
$var wire 1 ! SPI_slave_select $end
$var wire 1 " SPI_mosi $end
$var wire 1 # SPI_flag $end
$var wire 8 0 SPI_data_rec [7:0] $end
$scope module FSM $end
$var wire 1 % SPI_MSB $end
$var wire 8 1 SPI_data_trans [7:0] $end
$var wire 1 ( SPI_miso $end
$var wire 1 ) SPI_reset $end
$var wire 1 * SPI_start $end
$var wire 1 / sck_master $end
$var reg 8 2 SPI_data_rec [7:0] $end
$var reg 1 # SPI_flag $end
$var reg 1 " SPI_mosi $end
$var reg 3 3 counter [2:0] $end
$var reg 2 4 current [1:0] $end
$var reg 2 5 next [1:0] $end
$var reg 1 . sck_slave $end
$var reg 8 6 shift_reg_rx [7:0] $end
$var reg 8 7 shift_reg_tx [7:0] $end
$var reg 1 ! ss $end
$upscope $end
$scope module freq_div $end
$var wire 2 8 SPI_div [1:0] $end
$var wire 1 + clk $end
$var wire 1 ) rstn $end
$var reg 1 9 f1 $end
$var reg 1 : f2 $end
$var reg 1 ; f3 $end
$var reg 1 / sck_master $end
$upscope $end
$upscope $end
$upscope $end
$enddefinitions $end
#0
$dumpvars
0;
0:
09
b1 8
b0 7
b0 6
b0 5
b0 4
b0 3
b0 2
b1111 1
b0 0
0/
0.
b1 -
b1111 ,
0+
0*
0)
0(
b1 '
b1111 &
1%
b0 $
0#
0"
x!
$end
#5
1;
1!
1:
1/
19
1)
1+
#10
0+
#15
0/
09
b1 5
1+
1*
#20
0+
#25
b10 5
b1 4
0:
1/
19
1+
#30
0+
#35
0/
09
1+
0*
#40
0+
#45
0;
1.
0!
b1111 7
b10 4
1:
1/
19
1+
1(
#50
0+
#55
0.
0/
09
1+
0(
#60
0+
#65
b11110 7
b1 3
1#
0!
0:
1.
1/
19
1+
#70
0+
#75
0.
0/
09
1+
#80
0+
#85
1;
b1 6
b111100 7
b10 3
1#
0!
1:
1.
1/
19
1+
1(
#90
0+
#95
0.
0/
09
1+
#100
0+
#105
b10 6
b1111000 7
b11 3
1#
0!
0:
1.
1/
19
1+
0(
#110
0+
#115
0.
0/
09
1+
#120
0+
#125
0;
b101 6
b11110000 7
b100 3
1#
0!
1:
1.
1/
19
1+
1(
#130
0+
#135
0.
0/
09
1+
#140
0+
#145
b1011 6
b11100000 7
1"
b101 3
1#
0!
0:
1.
1/
19
1+
#150
0+
#155
0.
0/
09
1+
#160
0+
#165
1;
b10111 6
b11000000 7
b110 3
1#
0!
1:
1.
1/
19
1+
#170
0+
#175
0.
0/
09
1+
#180
0+
#185
b11 5
b101111 6
b10000000 7
b111 3
1#
0!
0:
1.
1/
19
1+
#190
0+
#195
0.
0/
09
1+
0(
#200
0+
#205
0;
b0 5
b1011110 6
b0 7
b0 3
1#
0!
b11 4
1:
1.
1/
19
1+
#210
0+
#215
0.
0/
09
1+
#220
0+
#225
b1011110 $
b1011110 0
b1011110 2
0#
1!
b0 4
0:
0.
1/
19
1+
#230
0+
#235
0/
09
1+
#240
0+
#245
1;
1:
1/
19
1+
#250
0+
#255
0/
09
1+
#260
0+
#265
0:
19
0/
1+
b10 '
b10 -
b10 8
0%
b11110000 &
b11110000 ,
b11110000 1
#270
0+
#275
09
b1 5
1+
1*
#280
0+
#285
b10 5
b1 4
0;
1/
1:
19
1+
#290
0+
#295
09
1+
0*
#300
0+
#305
0/
0:
19
1+
#310
0+
#315
09
1+
#320
0+
#325
1.
0!
b11110000 7
b10 4
1;
1/
1:
19
1+
1(
#330
0+
#335
09
1+
0(
#340
0+
#345
0.
0/
0:
19
1+
#350
0+
#355
09
1+
1(
#360
0+
#365
b10101111 6
b11111000 7
0"
b1 3
1#
0!
0;
1.
1/
1:
19
1+
#370
0+
#375
09
1+
0(
#380
0+
#385
0.
0/
0:
19
1+
#390
0+
#395
09
1+
#400
0+
#405
b11010111 6
b11111100 7
b10 3
1#
0!
1;
1.
1/
1:
19
1+
1(
#410
0+
#415
09
1+
0(
#420
0+
#425
0.
0/
0:
19
1+
#430
0+
#435
09
1+
#440
0+
#445
b1101011 6
b1111110 7
b11 3
1#
0!
0;
1.
1/
1:
19
1+
#450
0+
#455
09
1+
1(
#460
0+
#465
0.
0/
0:
19
1+
#470
0+
#475
09
1+
#480
0+
#485
b10110101 6
b10111111 7
b100 3
1#
0!
1;
1.
1/
1:
19
1+
#490
0+
#495
09
1+
#500
0+
#505
0.
0/
0:
19
1+
#510
0+
#515
09
1+
#520
0+
#525
b11011010 6
b11011111 7
1"
b101 3
1#
0!
0;
1.
1/
1:
19
1+
#530
0+
#535
09
1+
#540
0+
#545
0.
0/
0:
19
1+
#550
0+
#555
09
1+
#560
0+
#565
b11101101 6
b11101111 7
b110 3
1#
0!
1;
1.
1/
1:
19
1+
#570
0+
#575
09
1+
#580
0+
#585
0.
0/
0:
19
1+
#590
0+
#595
09
1+
#600
0+
#605
b11 5
b11110110 6
b11110111 7
b111 3
1#
0!
0;
1.
1/
1:
19
1+
#610
0+
#615
09
1+
#620
0+
#625
0.
0/
0:
19
1+
#630
0+
#635
09
1+
#640
0+
#645
b0 5
b11111011 6
b11111011 7
b0 3
1#
0!
b11 4
1;
1.
1/
1:
19
1+
#650
0+
#655
09
1+
#660
0+
#665
0.
0/
0:
19
1+
#670
0+
#675
09
1+
#680
0+
#685
b11111011 $
b11111011 0
b11111011 2
0#
1!
b0 4
0;
0.
1/
1:
19
1+
#690
0+
#695
09
1+
#700
0+
#705
0/
0:
19
1+
#710
0+
#715
09
1+
#720
0+
#725
1;
1/
1:
19
1+
#730
0+
#735
09
1+
#740
0+
#745
0/
0:
19
1+
#750
0+
#755
09
1+
